Division,WeightClassKg,Name,Sex,Team,BirthDate,BodyweightKg,Squat1Kg,Squat2Kg,Squat3Kg,Best3SquatKg,Bench1Kg,Bench2Kg,Bench3Kg,Best3BenchKg,Deadlift1Kg,Deadlift2Kg,Deadlift3Kg,Best3DeadliftKg,TotalKg,Place,Equipment,Event
Masters 3,83,Peter Leister,M,Fitboxcamp Powerlifting e.V. Lohr am Main,1958-07-11,82,140,,,140,100,135,,135,160,,,160,435,1,Single-ply,SBD
Masters 4,93,Günter Lüdecke,M,VfB Klötze 07,1948-06-21,87,150,165,,165,80,82.5,85,85,170,185,192.5,192.5,442.5,1,Single-ply,SBD
Masters 3,93,Egon Escher,M,Polizeisportverein Sonneberg e.V.,1954-05-21,85,90,110,130,130,90,120,125,125,110,120,,120,375,1,Single-ply,SBD
Masters 3,105,Karl-Heinz May,M,Polizeisportverein Sonneberg e.V.,1953-05-17,101.2,100,120,,120,120,-140,140,140,120,140,,140,400,1,Single-ply,SBD
Masters 2,93,Guido Nieland,M,Athletik Club 1892 Weinheim e. V.,1970-09-25,92.9,237.5,-255,-260,237.5,185,192.5,-200,192.5,222.5,-225,240,240,670,1,Single-ply,SBD
Masters 2,105,Matthias Simpig,M,Sanssouci Gym e. V. Potsdam,1972-03-17,98.7,210,225,235,235,157.5,165,170,170,200,220,240,240,645,1,Single-ply,SBD
Masters 1,83,Hubert Wagner,M,KBV Bautzen e.V.,1981-08-06,81.9,260,270,280,280,180,187.5,-191,187.5,285,306,-308.5,306,773.5,1,Single-ply,SBD
Masters 1,83,Matthias Stach,M,Athletik Club 1892 Weinheim e. V.,1979-02-17,82.8,235,247.5,257.5,257.5,-160,-160,160,160,240,260,270,270,687.5,2,Single-ply,SBD
Masters 1,93,René Ullerich,M,Gostorfer SV e.V.,1978-04-07,92.7,260,280,-295,280,170,185,-200,185,260,275,-282.5,275,740,1,Single-ply,SBD
Masters 1,93,Christian Raapke,M,VfB Klötze 07,1982-10-02,91.7,-185,185,195,195,-135,-135,-135,,195,210,-220,210,,DQ,Single-ply,SBD
Masters 1,105,Ronny Schröder,M,FSV Blau-Weiß Bergen e.V.,1979-10-26,95.1,250,265,275,275,180,190,200,200,250,265,270,270,745,1,Single-ply,SBD
Masters 1,105,Norbert Kropf,M,AC Bavaria Forchheim 1908 e.V.,1978-10-28,104.5,240,255,265,265,190,-200,200,200,220,235,-250,235,700,2,Single-ply,SBD
Masters 1,105,Werner Stefanowicz,M,Athletik Club 1892 Weinheim e. V.,1975-10-02,98.2,140,155,165,165,160,-175,-175,160,175,200,-210,200,525,4,Single-ply,SBD
Masters 2,120,Jürgen Cech,M,Athletik Club 1892 Weinheim e. V.,1969-02-21,105.4,120,140,160,160,90,140,150,150,120,140,150,150,460,1,Single-ply,SBD
Masters 2,83,Jan Andreas Smolczyk,M,Powerlifting Duisburg e.V.,1970-07-12,82.7,-175,185,-200,185,150,155,160,160,225,240,255,255,600,1,Single-ply,SBD
Masters 1,105,Frank Barthel,M,SV 1956 Großkochberg,1980-02-20,102.8,190,200,205,205,-270,270,-280,270,190,200,-205,200,675,3,Single-ply,SBD
Masters 1,93,Alexander Pfaff,M,KSV Zillbach e.V.,1979-02-02,88.5,192.5,205,-212.5,205,135,145,-152.5,145,220,232.5,245,245,595,4,Raw,SBD
Masters 4,74,Günter Runniger,M,Powerlifting Duisburg e.V.,1952-07-08,73.1,137.5,145,-150,145,82.5,87.5,92.5,92.5,165,175,180,180,417.5,1,Raw,SBD
Masters 3,105,Friedhelm Mandel,M,Todtglüsinger Sportverein von 1930 e.V.,1961-04-29,104.2,170,177.5,185,185,125,130,135,135,175,190,195,195,515,2,Raw,SBD
Masters 4,105,Hartmut Grulke,M,SC Elite v. 1921 e.V.,1952-02-11,99.4,120,125,130,130,90,95,97.5,97.5,140,145,150,150,377.5,2,Raw,SBD
Masters 3,105,Arnold Leesemann,M,SC Elite v. 1921 e.V.,1954-03-16,102.2,-150,150,165,165,120,127.5,-130,127.5,200,220,222.5,222.5,515,1,Raw,SBD
Masters 3,66,Alexander Axt,M,SV Quitt Ankum e.V. 1919,1955-05-12,65.4,90,95,100,100,65,-70,-75,65,130,-153,-153,130,295,1,Raw,SBD
Masters 3,74,Roland Asmus,M,SV Motor Eberswalde e.V. Abteilung Gewichtheben/Kraftdreikampf,1960-11-26,71,150,160,165,165,100,-107.5,,100,170,190,200,200,465,1,Raw,SBD
Masters 3,93,Gustav Waidmann,M,HSV Weimar,1953-04-08,89.2,170,185,195,195,110,-115,,110,180,200,-210,200,505,3,Raw,SBD
Masters 4,93,Kazimierz Michael Forys,M,Kraftsport Colonia,1945-08-03,92,140,150,,150,110,120,-125,120,180,-200,,180,450,1,Raw,SBD
Masters 3,105,Klaus Cech,M,Athletik Club 1892 Weinheim e. V.,1960-09-27,94.1,120,125,-130,125,55,60,-62.5,60,130,140,152.5,152.5,337.5,3,Raw,SBD
Masters 3,120+,Udo Thielking,M,AC Power Elite Haiger e.V.,1961-05-30,123.4,160,-180,180,180,120,135,140,140,200,215,225,225,545,1,Raw,SBD
Masters 3,93,Peer Hänsicke,M,SV Kraft Eberswalde e.V.,1961-10-02,92.5,170,190,200,200,140,-150,155,155,180,200,-210,200,555,1,Raw,SBD
Masters 3,93,Hans-Joachim Hook,M,AC 1888 Marburg e.V.,1954-05-10,87.9,160,170,175,175,122.5,127.5,130,130,205,215,-220,215,520,2,Raw,SBD
Masters 4,83,Kurt Bücherl,M,AC Goliath 20 e.V. Mengede,1950-02-27,82.6,130,140,150,150,57.5,-60,60,60,150,160,-170,160,370,1,Raw,SBD
Masters 4,120+,Ralf Bog,M,SV 1956 Großkochberg,1952-02-26,127.8,150,160,170,170,-80,85,-92.5,85,190,197.5,-202.5,197.5,452.5,1,Raw,SBD
Masters 3,120+,Armin Ehinger,M,Corpus Fitness Weightplayers 1999 e.V.,1957-08-26,127.3,170,180,-190,180,120,125,130,130,190,200,210,210,520,2,Raw,SBD
Masters 4,105,Willi Rötte,M,Strongman Herne e.V.,1950-06-15,101.4,130,135,140,140,97.5,105,-107.5,105,160,170,180,180,425,1,Raw,SBD
Masters 3,120,Reiner Katzula,M,Strongman Herne e.V.,1953-02-07,114.9,-180,190,200,200,130,140,147.5,147.5,180,195,207.5,207.5,555,1,Raw,SBD
Masters 4,57,Dagmar McSwain,F,Turngemeinde Landshut 1861 e.V.,1944-07-05,55.5,37.5,42.5,47.5,47.5,30,35,37.5,37.5,67.5,72.5,75,75,160,1,Raw,SBD
Masters 3,63,Pia Kring,F,AC Power Elite Haiger e.V.,1957-09-05,61,80,85,90,90,60,65,67.5,67.5,105,115,120,120,277.5,1,Raw,SBD
Masters 1,63,Daniela Falck,F,STC Bavaria 20 Landshut,1975-10-23,62.4,110,115,120,120,65,70,72.5,72.5,145,150,155,155,347.5,1,Raw,SBD
Masters 2,63,Marion Zeschau,F,TV Röhlinghausen,1970-06-01,58.7,75,80,85,85,47.5,52.5,-55,52.5,90,100,102.5,102.5,240,1,Raw,SBD
Masters 2,63,Kathrin Herold,F,Gothaer Bierfassheberverein e.V.,1971-08-05,60.2,60,65,67.5,67.5,45,47.5,50,50,-105,112.5,117.5,117.5,235,2,Raw,SBD
Masters 3,63,Birgit Strehlow,F,Athletenschmiede Kiel e. V.,1962-05-09,61,70,75,80,80,45,47.5,-50,47.5,90,95,-100,95,222.5,2,Raw,SBD
Masters 2,76,Olga Dell,F,Kraftsport Colonia,1972-08-09,75,125,130,-132.5,130,60,62.5,-65,62.5,135,145,-147.5,145,337.5,1,Raw,SBD
Masters 1,52,Ira Neitzel,F,Kraftsport Colonia,1981-06-30,51.7,95,105,-110.5,105,50,55,-60,55,97.5,107.5,-115,107.5,267.5,1,Raw,SBD
Masters 1,57,Jasmin Treimer,F,Todtglüsinger Sportverein von 1930 e.V.,1976-08-07,56.5,95,102.5,110,110,55,57.5,60,60,145,155.5,160,160,330,1,Raw,SBD
Masters 1,76,Brita Fritsch,F,Greifenpower e.V.,1973-12-06,72.2,130,140,,140,80,87.5,92.5,92.5,160,170,,170,402.5,1,Raw,SBD
Masters 1,84,Stefanie Jakob,F,Turngemeinde Landshut 1861 e.V.,1977-05-14,80,120,130,-140,130,85,92.5,97.5,97.5,145,158,165,165,392.5,1,Raw,SBD
Masters 1,84,Maren Hanfeld,F,AC Heros Berlin,1982-10-17,76.8,100,110,-120,110,70,75,-80,75,120,130,135,135,320,2,Raw,SBD
Masters 1,84,Anja Klinger,F,Kraftsportverein Bad Lausick e.V.,1979-02-28,79.2,90,100,105,105,70,75,-80,75,95,105,110,110,290,3,Raw,SBD
Masters 1,84+,Ariane Bötel,F,SVT Neumünster e.V.,1979-06-14,116.1,90,100,105,105,67.5,72.5,-77.5,72.5,120,130,140,140,317.5,1,Raw,SBD
Masters 2,83,Matthias Siegle,M,Sportverein Fellbach 1890 e. V.,1963-07-11,82.2,-200,200,-217.5,200,132.5,-135,-145,132.5,220,,,220,552.5,1,Raw,SBD
Masters 2,83,Dirk Surma,M,KSV Fitnesskreis,1967-06-14,83,155,162.5,170,170,135,-140,-140,135,155,165,-170,165,470,2,Raw,SBD
Masters 2,83,Jörg Herold,M,Gothaer Bierfassheberverein e.V.,1971-02-11,79.9,155,162.5,167.5,167.5,90,95,100,100,177.5,190,-195,190,457.5,4,Raw,SBD
Masters 2,83,Heiko Grunert,M,VfB Klötze 07,1968-06-18,81.9,135,142.5,-147.5,142.5,107.5,112.5,-115,112.5,140,155,160,160,415,5,Raw,SBD
Masters 2,93,Jörg Kasparek,M,TV Röhlinghausen,1968-12-11,91.5,190,200,207.5,207.5,130,-135,135,135,230,-251,,230,572.5,1,Raw,SBD
Masters 2,93,Frank Hausburg,M,Riesear AC,1971-05-20,90.2,150,165,175,175,110,120,-122.5,120,205,220,230,230,525,3,Raw,SBD
Masters 2,83,Dirk Riedel,M,Powerlifting Duisburg e.V.,1966-05-04,82.8,140,157.5,167.5,167.5,70,,,70,190,210,222.5,222.5,460,3,Raw,SBD
Masters 2,105,Klaus Freund,M,AC Bavaria Forchheim 1908 e.V.,1965-09-22,102.8,165,175,-185,175,115,120,-125,120,195,210,225,225,520,3,Raw,SBD
Masters 2,105,Kersten Kammer,M,ESV München-Neuaubing,1963-11-15,103.7,-155,155,165,165,130,-140,140,140,200,210,215,215,520,4,Raw,SBD
Masters 2,105,Olaf Brandl,M,AC Siegen e.V.,1970-06-11,97.6,185,200,207.5,207.5,175,182.5,187.5,187.5,230,-245,-245,230,625,1,Raw,SBD
Masters 2,120,Dirk Bernau,M,Preetzer TSV,1972-08-03,111.7,185,195,205,205,172.5,178,183,183,217.5,232.5,245,245,633,1,Raw,SBD
Masters 2,93,Steffen Richter,M,AC Heros Berlin,1965-04-02,90.2,165,175,182.5,182.5,-100,100,105,105,155,-165,-165,155,442.5,5,Raw,SBD
Masters 2,105,Oleksandr Sharov,M,KSV-Lippe-Bad-Salzuflen,1964-11-21,104.6,195,205,212.5,212.5,152.5,157.5,-162.5,157.5,200,215,-225,215,585,2,Raw,SBD
Masters 2,93,Alfons Räß,M,Hantelsport-Club Pfatter e.V,1970-09-25,91.3,160,175,-180,175,110,120,125,125,215,230,235,235,535,2,Raw,SBD
Masters 2,74,Frank Bahr,M,Kraftsport Colonia,1965-04-08,73,125,135,137.5,137.5,120,122.5,125,125,145,155,160,160,422.5,1,Raw,SBD
Masters 2,74,Dr Martin Holfeld,M,TSV 1892 Heiligenrode e.V.,1963-11-26,71.5,112.5,120,-125,120,90,95,100,100,120,130,-145,130,350,2,Raw,SBD
Masters 2,66,David Menner,M,Athletiksportverein 04 Grötzingen e.V.,1972-09-21,64.9,145,155,-165,155,95,100,105,105,170,182.5,-195,182.5,442.5,1,Raw,SBD
Masters 2,120,Roland Kurtz,M,Kraftsport Colonia,1968-03-20,116.9,170,180,-185,180,-130,130,-135,130,210,-220,220,220,530,3,Raw,SBD
Masters 2,105,Michael Pyritz,M,FSV Blau-Weiß Bergen e.V.,1971-12-01,101.1,220,240,-250,240,,,,,,,,,,DQ,Raw,SBD
Masters 2,120,Udo Ahlvers,M,Power Gym Wiesbaden e.V.,1972-04-22,119.4,-180,190,195,195,135,142.5,145,145,190,210,225,225,565,2,Raw,SBD
Masters 2,120+,Thomas Schmidt,M,FSV Blau-Weiß Bergen e.V.,1970-07-19,131.3,245,-260,,245,,,,,,,,,,DQ,Raw,SBD
Masters 2,93,Andreas Walter,M,Greifenpower e.V.,1964-09-17,88.9,180,187.5,192.5,192.5,115,120,-125,120,190,202.5,210,210,522.5,4,Raw,SBD
Masters 1,83,Peter Schmidt,M,HSV Weimar,1974-09-25,81.7,225,237.5,245,245,135,145,150,150,225,240,250,250,645,1,Raw,SBD
Masters 1,93,Alex Kontschev,M,ASV 1897 Neu-Ulm e.V.,1980-10-01,92.9,200,210,215,215,130,140,147.5,147.5,220,232.5,237.5,237.5,600,3,Raw,SBD
Masters 1,93,Thorsten Strehlau,M,V.f.V Braunschweig e.V.,1977-06-14,92.8,205,217.5,225,225,162.5,170,175,175,250,270,-282.5,270,670,2,Raw,SBD
Masters 1,93,Kay Milde,M,Powerlifting Mühl Rosin e.V.,1978-02-23,92.6,225,240,-247.5,240,145,-150,150,150,275,290,-300,290,680,1,Raw,SBD
Masters 1,120+,Marcel Benzler,M,Fitboxcamp Powerlifting e.V. Lohr am Main,1974-01-09,128.3,190,210,220,220,160,175,180,180,220,240,-260,240,640,2,Raw,SBD
Masters 1,120,Matthias Donner,M,Greifenpower e.V.,1980-06-02,119.6,230,245,,245,150,160,-165,160,260,275,280,280,685,2,Raw,SBD
Masters 1,120,Michael Groß,M,Kraftsportverein 1959 Langen e.V.,1981-04-05,113.9,182.5,192.5,202.5,202.5,125,-132.5,132.5,132.5,235,255,265,265,600,3,Raw,SBD
Masters 1,83,Thomas Konstanty,M,AC 1888 Marburg e.V.,1973-07-22,81.5,160,175,185,185,110,115,-120,115,260,280,-290,280,580,2,Raw,SBD
Masters 1,105,Helmut Purwanto,M,KSV Frankfurt e.V.,1980-02-17,100.8,240,255,260,260,165,170,172.5,172.5,250,265,275,275,707.5,1,Raw,SBD
Masters 1,83,Christian Hoffmann,M,FC Erzgebirge Aue e.V. Abt. Kraftsport,1981-02-23,82.5,170,180,-185,180,140,145,-150,145,200,210,215,215,540,4,Raw,SBD
Masters 1,105,Markus Olt,M,AC 1888 Marburg e.V.,1978-07-17,93.6,175,190,200,200,107.5,112.5,,112.5,185,200,-207.5,200,512.5,5,Raw,SBD
Masters 1,120+,Steffen Radeck,M,AC 1888 Marburg e.V.,1975-02-01,121.9,235,240,-245,240,140,150,,150,250,265,-275,265,655,1,Raw,SBD
Masters 1,93,David Stuckatz,M,SV Großräschen e.V. Abt. Kraftsport,1975-02-03,91.8,180,192.5,205,205,130,135,142.5,142.5,200,217.5,230,230,577.5,5,Raw,SBD
Masters 1,66,Matthias Riesch,M,Corpus Fitness Weightplayers 1999 e.V.,1973-08-07,65.3,145,160,170,170,85,90,-95,90,185,201,,201,461,1,Raw,SBD
Masters 1,74,Simon Keil,M,Athletik Club Bochum e.V.,1982-07-14,73,175,182.5,187.5,187.5,110,115,-120,115,210,220,225,225,527.5,1,Raw,SBD
Masters 1,105,Daniel Hammer,M,Powerlifting Würzburg e.V.,1978-09-05,100.6,210,220,222.5,222.5,145,152.5,157.5,157.5,207.5,220,227.5,227.5,607.5,4,Raw,SBD
Masters 1,105,Oliver Zamzow,M,Berlin Strength e.V.,1978-02-21,104.8,235,245,-250,245,147.5,152.5,-155,152.5,230,250,265,265,662.5,3,Raw,SBD
Masters 1,120,Taras Tarasenko,M,BC Vechta e.V.,1982-12-23,119.4,270,280,290,290,190,200,-205,200,300.5,315,-325,315,805,1,Raw,SBD
Masters 1,105,Martin Slach,M,AC Kaufbeuren e.V.,1976-09-01,103.6,225,237.5,-245,237.5,145,150,155,155,245,260,270,270,662.5,2,Raw,SBD
Masters 1,83,Maik Klingert,M,Athletiksportverein 04 Grötzingen e.V.,1979-01-23,79.5,160,177.5,195,195,110,122.5,-135,122.5,210,235,-262.5,235,552.5,3,Raw,SBD
