Place,Name,Sex,BirthDate,Age,Country,State,Equipment,Division,BodyweightKg,WeightClassKg,Squat1Kg,Squat2Kg,Squat3Kg,Best3SquatKg,Bench1Kg,Bench2Kg,Bench3Kg,Best3BenchKg,Deadlift1Kg,Deadlift2Kg,Deadlift3Kg,Best3DeadliftKg,TotalKg,Event,Team
1,Sarah Murphy,F,1985-01-19,37,USA,OH,Raw,F_OR_APF,91.9,100,105,115,120,120,55,60,62.5,62.5,105,115,122.5,122.5,305,SBD,
1,Laura Gray,F,1969-04-16,53,USA,OH,Raw,F_MR_3_APF,89.4,90,90,92.5,95,95,77.5,80,82.5,82.5,125,127.5,130,130,307.5,SBD,
1,Carly Scouten,F,1998-01-16,24,USA,MI,Raw,F_OR_APF,70.9,75,67.5,80,-85,80,32.5,40,-42.5,40,85,97.5,102.5,102.5,222.5,SBD,
1,Keriann Johnson,F,1993-12-21,28,USA,OH,Raw,F_OR_APF,79.9,82.5,155,165,172.5,172.5,100,105,110,110,175,182.5,-190,182.5,465,SBD,Eaton Barbell
DQ,Grace Fisher,F,1996-07-05,,USA,OH,Wraps,F_OCR_APF,77.5,82.5,-92.5,-92.5,-92.5,,-50,,,,-97.5,,,,,SBD,
1,Stacey Hartwig,F,1998-02-21,24,USA,OH,Wraps,F_OCR_APF,123.5,110+,172.5,182.5,-192.5,182.5,75,82.5,-85,82.5,165,172.5,-182.5,172.5,437.5,SBD,
1,Erika Crist,F,1990-04-09,32,USA,OH,Multi-ply,F_OEM_APF,55.5,56,202.5,220,-227.5,220,-110,110,122.5,122.5,115,135,-140,135,477.5,SBD,
1,Madison Pennington,F,1996-04-13,26,USA,OH,Raw,F_OR_APF,62.8,67.5,,,,,55,57.5,-62.5,57.5,,,,,57.5,B,Eaton Barbell
DQ,Simon Vaughn,M,2001-09-28,20,USA,OH,Raw,M_JR_APF,77.6,82.5,-202.5,202.5,-205,202.5,-140,-140,-140,,220,225,227.5,227.5,,SBD,
1,Kenny Guerrero,M,1995-03-07,27,USA,OH,Raw,M_OR_APF,59.8,60,97.5,102.5,107.5,107.5,65,70,-72.5,70,115,125,132.5,132.5,310,SBD,Animal House Gym
1,Christopher Walker,M,1989-11-16,32,USA,OH,Raw,M_OR_APF,81.8,82.5,165,180,192.5,192.5,115,120,125,125,200,215,220,220,537.5,SBD,
1,Joshua Sizelove,M,1988-06-27,33,USA,OH,Raw,M_SR_APF,124.3,125,220,225,-250,225,-165,170,-180,170,220,240,250,250,645,SBD,
1,Andrew McIntosh,M,1999-08-17,22,USA,OH,Raw,M_JR_APF,89.7,90,160,172.5,185,185,112.5,120,127.5,127.5,192.5,210,227.5,227.5,540,SBD,
DQ,Trevor Shawber,M,1999-08-20,22,USA,OH,Wraps,M_JCR_APF,99.3,100,-250,-250,-250,,-142.5,-142.5,,,-227.5,,,,,SBD,
1,Michael Cluckey,M,1998-12-31,23,USA,OH,Wraps,M_JCR_APF,109.1,110,250,265,277.5,277.5,175,182.5,-192.5,182.5,277.5,292.5,-312.5,292.5,752.5,SBD,
1,Kevin Hall,M,1980-06-01,42,USA,OH,Wraps,M_MCR_1_APF,108.2,110,-205,-205,205,205,132.5,-137.5,-137.5,132.5,205,215,227.5,227.5,565,SBD,
1,Paul Bowling,M,1981-02-01,41,USA,IN,Raw,M_MR_1_APF,126.6,140,205,215,225,225,165,175,182.5,182.5,205,230,237.5,237.5,645,SBD,Eaton Barbell
1,Justin Brown,M,1990-03-14,32,USA,IN,Wraps,M_OCR_APF,77.9,82.5,130,142.5,-160,142.5,85,92.5,-102.5,92.5,160,165,172.5,172.5,407.5,SBD,
DQ,Cody Robbins,M,1990-05-14,32,USA,IN,Wraps,M_OCR_APF,90,90,320,-337.5,-340,320,215,225,-232.5,225,,,,,,SBD,
1,Mike Schaeffer,M,1994-07-14,27,USA,OH,Wraps,M_OCR_APF,98.6,100,300,-320,320,320,187.5,-195,197.5,197.5,310,325,335,335,852.5,SBD,
2,Brandon Maraldo,M,1992-09-20,29,USA,OH,Wraps,M_OCR_APF,97.8,100,190,205,-225,205,-117.5,117.5,125,125,210,225,235,235,565,SBD,
DQ,Trevor Shawber,M,1999-08-20,22,USA,OH,Wraps,M_OCR_APF,99.3,100,-250,-250,-250,,-142.5,-142.5,,,-227.5,,,,,SBD,
1,Donovan King,M,1999-08-06,22,USA,OH,Wraps,M_OCR_APF,106.7,110,220,230,240,240,150,160,-167.5,160,235,250,-255,250,650,SBD,
1,Mark Conover,M,1989-09-20,32,USA,IN,Wraps,M_OCR_APF,125,125,370,400,410,410,232.5,247.5,-255,247.5,317.5,330,335,335,992.5,SBD,
2,Jacob Lenning,M,1998-04-30,24,USA,OH,Wraps,M_OCR_APF,113.1,125,160,165,-175,165,115,125,127.5,127.5,160,170,182.5,182.5,475,SBD,
1,Gabriel Cabrera,M,1990-09-27,31,USA,OH,Wraps,M_OCR_APF,137.8,140,277.5,290,-295,290,157.5,160,-165,160,202.5,210,-215,210,660,SBD,Animal House Gym
2,Paul Bowling,M,1981-02-01,41,USA,IN,Raw,M_OR_APF,126.6,140,205,215,225,225,165,175,182.5,182.5,205,230,237.5,237.5,645,SBD,Eaton Barbell
1,Josh Spurgeon,M,1997-07-28,24,USA,OH,Wraps,M_OCR_APF,180.3,140+,365,382.5,410,410,215,227.5,242.5,242.5,347.5,365,,365,1017.5,SBD,
1,Sean Williams,M,1983-10-18,38,USA,OH,Wraps,M_SCR_APF,101,110,182.5,195,205,205,135,142.5,152.5,152.5,217.5,225,235,235,592.5,SBD,
1,Ryon Foubert,M,2002-10-10,19,USA,OH,Wraps,M_TCR_3_APF,97,100,170,180,190,190,127.5,-130,130,130,215,222.5,230,230,550,SBD,Eaton Barbell
1,Alfredo Ibarra,M,1994-05-27,28,USA,OH,Single-ply,M_OES_APF,109.5,110,380,395,-410,395,272.5,295,-317.5,295,320,342.5,-350,342.5,1032.5,SBD,
1,Tyler Butcher,M,1988-07-28,33,USA,OH,Single-ply,M_OES_APF,160.8,140+,467.5,517.5,,517.5,332.5,,,332.5,62.5,,,62.5,912.5,SBD,
DQ,Mason Shepherd,M,2000-11-29,21,USA,OH,Multi-ply,M_JEM_APF,95.7,100,282.5,305,-317.5,305,-165,-165,-165,,-207.5,,,,,SBD,
1,Bill Croucher,M,1972-09-23,49,USA,OH,Multi-ply,M_MEM_2_APF,109.7,110,-247.5,247.5,-282.5,247.5,177.5,-187.5,-187.5,177.5,177.5,182.5,,182.5,607.5,SBD,Eaton Barbell
1,James Blair,M,1970-08-25,51,USA,OH,Multi-ply,M_MEM_3_APF,121,125,335,360,-367.5,360,190,202.5,207.5,207.5,230,237.5,-242.5,237.5,805,SBD,
1,James Turner,M,1966-04-14,56,USA,OH,Multi-ply,M_MEM_4_APF,80.8,82.5,227.5,242.5,250,250,-130,130,-135,130,167.5,172.5,180,180,560,SBD,
DQ,Tom McNeil,M,1956-06-04,66,USA,OH,Multi-ply,M_MEM_6_APF,82,82.5,-257.5,-257.5,-257.5,,-120,,,,-242.5,,,,,SBD,
1,James Turner,M,1966-04-14,56,USA,OH,Multi-ply,M_OEM_APF,80.8,82.5,227.5,242.5,250,250,-130,130,-135,130,167.5,172.5,180,180,560,SBD,
DQ,Tom McNeil,M,1956-06-04,66,USA,OH,Multi-ply,M_OEM_APF,82,82.5,-257.5,-257.5,-257.5,,-120,,,,-242.5,,,,,SBD,
1,Travis Roberson,M,1989-07-05,32,USA,OH,Multi-ply,M_OEM_APF,105.1,110,317.5,340,347.5,347.5,192.5,-212.5,,192.5,292.5,315,-330,315,855,SBD,
DQ,Joe Lindsey,M,1984-06-08,37,USA,OH,Multi-ply,M_OEM_APF,102.9,110,375,400,415,415,-272.5,-272.5,-300,,-272.5,,,,,SBD,
1,Jacob Huff,M,1982-11-09,39,USA,OH,Multi-ply,M_OEM_APF,123.6,125,332.5,365,370,370,192.5,-207.5,-207.5,192.5,247.5,272.5,280,280,842.5,SBD,Main Street Barbell
2,James Blair,M,1970-08-25,51,USA,OH,Multi-ply,M_OEM_APF,121,125,335,360,-367.5,360,190,202.5,207.5,207.5,230,237.5,-242.5,237.5,805,SBD,
1,Jacob Hendrich,M,1998-12-16,23,USA,IN,Multi-ply,M_OEM_APF,139.3,140,425,442.5,455,455,185,252.5,265,265,275,295,310,310,1030,SBD,
1,Amos Leach,M,1992-12-05,29,USA,OH,Multi-ply,M_OEM_APF,137.6,140,,,,,272.5,290,-317.5,290,-295,295,,295,585,BD,
1,Paul Bowling,M,1981-02-01,41,USA,IN,Raw,M_MR_1_APF,126.6,140,,,,,165,175,182.5,182.5,,,,,182.5,B,Eaton Barbell
1,Paul Bowling,M,1981-02-01,41,USA,IN,Raw,M_OR_APF,126.6,140,,,,,165,175,182.5,182.5,,,,,182.5,B,Eaton Barbell
1,Alex Miltenberger,M,1996-03-14,26,USA,OH,Multi-ply,M_OEM_APF,141.7,140+,,,,,210,-220,220,220,,,,,220,B,
1,Kegan Thor Ramsey,M,1989-01-16,33,USA,IN,Raw,M_OR_APF,108.8,110,,,,,,,,,305,317.5,,317.5,317.5,D,
1,Kyle Miller #2,M,1996-03-27,26,USA,OH,Multi-ply,M_OEM_APF,99.8,100,,,,,,,,,320,342.5,-367.5,342.5,342.5,D,
