Division,WeightClassKg,Place,Name,Team,BodyweightKg,Best3SquatKg,Best3BenchKg,Best3DeadliftKg,TotalKg,Equipment,Event,Sex,BirthDate
Boys,51.71,1,Javier Aleman,Karnes City,51.71,147.42,86.18,163.29,396.89,Single-ply,SBD,M,
Boys,51.71,2,Chad Hasty,Geronimo Navarro,48.08,81.65,58.97,104.33,244.94,Single-ply,SBD,M,
Boys,55.79,1,Juan Higgins,Universal City Randolph,55.79,151.95,81.65,165.56,399.16,Single-ply,SBD,M,
Boys,55.79,2,Justin Livas,Goliad,55.79,124.74,63.5,122.47,310.71,Single-ply,SBD,M,
Boys,55.79,3,Jayden Moya,Refugio,53.07,83.91,74.84,111.13,269.89,Single-ply,SBD,M,
Boys,59.87,1,Javier Ontiveros,Refugio,59.87,111.13,86.18,145.15,342.46,Single-ply,SBD,M,
Boys,67.13,1,Diego Chapa,Geronimo Navarro,66.68,156.49,95.25,170.1,421.84,Single-ply,SBD,M,
Boys,67.13,2,Nick Swarzlose,Geronimo Navarro,66.68,151.95,99.79,165.56,417.3,Single-ply,SBD,M,
Boys,67.13,3,Mikal Niembro,George West,64.86,154.22,83.91,142.88,381.02,Single-ply,SBD,M,
Boys,67.13,4,Gilbert Salas,Karnes City,67.13,133.81,79.38,161.03,374.21,Single-ply,SBD,M,
Boys,67.13,5,Aaron Davis,Universal City Randolph,67.13,136.08,88.45,142.88,367.41,Single-ply,SBD,M,
Boys,67.13,6,Russell Lover,Karnes City,63.05,124.74,74.84,127.01,326.59,Single-ply,SBD,M,
Boys,67.13,DQ,Parker Cabra,Universal City Randolph,67.13,145.15,,,,Single-ply,SBD,M,
Boys,74.84,1,Zeke Campos,Geronimo Navarro,74.84,190.51,127.01,192.78,510.29,Single-ply,SBD,M,
Boys,74.84,2,Nathan Meza,Refugio,68.49,190.51,113.4,190.51,494.42,Single-ply,SBD,M,
Boys,74.84,3,Micheal Kroll,Karnes City,72.57,156.49,120.2,199.58,476.27,Single-ply,SBD,M,
Boys,74.84,4,Carson Smolka,Poth,72.57,142.88,97.52,149.69,390.09,Single-ply,SBD,M,
Boys,74.84,5,Hayden Toliver,Geronimo Navarro,72.12,140.61,88.45,158.76,387.82,Single-ply,SBD,M,
Boys,74.84,6,Kia McDow,Goliad,72.12,149.69,83.91,149.69,383.29,Single-ply,SBD,M,
Boys,74.84,7,Alexis Barrera,Goliad,71.67,138.35,74.84,149.69,362.87,Single-ply,SBD,M,
Boys,74.84,8,Landrum Wells,Universal City Randolph,72.57,127.01,97.52,129.27,353.8,Single-ply,SBD,M,
Boys,74.84,DQ,Trevon Moore,Universal City Randolph,73.94,,,,,Single-ply,SBD,M,
Boys,82.1,1,Tristan Trevino,Poth,80.29,204.12,120.2,201.85,526.17,Single-ply,SBD,M,
Boys,82.1,2,Lezerrick Banks,Universal City Randolph,77.56,190.51,108.86,176.9,476.27,Single-ply,SBD,M,
Boys,82.1,3,Logan Houston,George West,79.38,170.1,106.59,188.24,464.93,Single-ply,SBD,M,
Boys,82.1,4,Gene Ratliff,Goliad,77.11,161.03,111.13,188.24,460.4,Single-ply,SBD,M,
Boys,82.1,5,Marshall Homeyer,Karnes City,77.11,136.08,111.13,170.1,417.3,Single-ply,SBD,M,
Boys,82.1,DQ,Rhett Hodges,Karnes City,82.1,,,,,Single-ply,SBD,M,
Boys,82.1,DQ,Noah Paiz,George West,76.2,,,,,Single-ply,SBD,M,
Boys,82.1,DQ,Carson Morris,Universal City Randolph,76.2,,,,,Single-ply,SBD,M,
Boys,82.1,DQ,Justin Fowler #2,George West,79.38,,,,,Single-ply,SBD,M,
Boys,89.81,1,Izacc Zamora,Geronimo Navarro,85.73,197.31,111.13,195.04,503.49,Single-ply,SBD,M,
Boys,89.81,2,Benji DeNava,Refugio,86.18,183.7,111.13,195.04,489.88,Single-ply,SBD,M,
Boys,89.81,3,Matthew Richardson,Geronimo Navarro,86.64,174.63,120.2,167.83,462.66,Single-ply,SBD,M,
Boys,99.79,1,Steven Nava,Karnes City,97.07,229.06,129.27,215.46,573.79,Single-ply,SBD,M,
Boys,99.79,2,Michael Rocha,Refugio,99.34,174.63,115.67,201.85,492.15,Single-ply,SBD,M,
Boys,99.79,3,Nathan Min,Universal City Randolph,99.34,183.7,122.47,158.76,464.93,Single-ply,SBD,M,
Boys,99.79,4,Aidan Garza,Karnes City,92.99,165.56,88.45,190.51,444.52,Single-ply,SBD,M,
Boys,99.79,DQ,Brandon Glaspie,Universal City Randolph,96.62,,,,,Single-ply,SBD,M,
Boys,109.77,1,Cole Booker,Geronimo Navarro,109.32,265.35,151.95,244.94,662.24,Single-ply,SBD,M,
Boys,109.77,2,DJ Nunez,Karnes City,107.95,229.06,138.35,222.26,589.67,Single-ply,SBD,M,
Boys,109.77,3,Mark Alvizo,Poth,106.59,256.28,115.67,204.12,576.06,Single-ply,SBD,M,
Boys,109.77,4,Kade Bednorz,Goliad,106.59,197.31,147.42,192.78,537.51,Single-ply,SBD,M,
Boys,109.77,5,Solomon Barnoski,Karnes City,103.87,183.7,102.06,201.85,487.61,Single-ply,SBD,M,
Boys,109.77,6,Jared Relkin,Universal City Randolph,100.7,181.44,122.47,163.29,467.2,Single-ply,SBD,M,
Boys,109.77,7,Nathaniel Lerma,Poth,105.23,158.76,97.52,183.7,439.98,Single-ply,SBD,M,
Boys,109.77,8,Derek Lopez,Karnes City,104.33,167.83,90.72,149.69,408.23,Single-ply,SBD,M,
Boys,124.74,1,Carter Holtkamp,Geronimo Navarro,121.56,288.03,172.37,235.87,696.26,Single-ply,SBD,M,
Boys,124.74,2,LeVerius Gage,Goliad,123.83,297.1,147.42,240.4,684.92,Single-ply,SBD,M,
Boys,124.74,3,Zackary Guerra,Goliad,113.85,226.8,140.61,199.58,566.99,Single-ply,SBD,M,
Boys,124.74,4,Marcus Tristan,Karnes City,124.74,192.78,111.13,183.7,487.61,Single-ply,SBD,M,
Boys,124.74,5,Dylon Gatica,Karnes City,112.49,183.7,106.59,172.37,462.66,Single-ply,SBD,M,
Boys,124.74,6,Tucker Carpenter,George West,111.13,158.76,83.91,154.22,396.89,Single-ply,SBD,M,
Boys,139.71,1,Dalton Perry,Poth,136.98,317.51,138.35,269.89,725.75,Single-ply,SBD,M,
Boys,139.71,2,Walker Wimberly,Goliad,136.98,226.8,142.88,201.85,571.53,Single-ply,SBD,M,
Boys,139.71,3,Trey Garner,Geronimo Navarro,139.71,174.63,106.59,161.03,442.25,Single-ply,SBD,M,
Boys,139.71+,1,Sergio Hernandez,Geronimo Navarro,142.43,306.17,199.58,254.01,759.77,Single-ply,SBD,M,
Boys,139.71+,2,Ethan Lopez,Karnes City,175.09,158.76,117.93,174.63,451.32,Single-ply,SBD,M,
Boys,,NS,Justin Edison,Goliad,,,,,,Single-ply,SBD,M,
Boys,,NS,Bryon Lewis,Goliad,,,,,,Single-ply,SBD,M,
Boys,,NS,Raymond Figueroa,George West,,,,,,Single-ply,SBD,M,
Boys,,NS,Mack Berry,Geronimo Navarro,,,,,,Single-ply,SBD,M,
Boys,,NS,Matthew Jarzombek,Poth,,,,,,Single-ply,SBD,M,
