Division,WeightClassKg,Place,Name,Team,BodyweightKg,Best3SquatKg,Best3BenchKg,Best3DeadliftKg,TotalKg,Equipment,Event,Sex
Boys,51.71,1,Josh Paige,Hitchcock,51.53,122.47,74.84,136.08,333.39,Single-ply,SBD,M
Boys,51.71,2,Richie Garza,West Columbia,48.63,124.74,58.97,127.01,310.71,Single-ply,SBD,M
Boys,51.71,3,Eric Tran,Clute Brazoswood,44.36,79.38,40.82,95.25,215.46,Single-ply,SBD,M
Boys,51.71,4,Justin Garner,Sweeny,40.46,86.18,43.09,79.38,208.65,Single-ply,SBD,M
Boys,55.79,1,Jonathan Cardenas,Freeport Brazosport,55.79,192.78,111.13,195.04,498.95,Single-ply,SBD,M
Boys,55.79,2,Adarius Jones,Manvel,54.88,133.81,86.18,158.76,378.75,Single-ply,SBD,M
Boys,55.79,3,Marco Sanchez,Hitchcock,55.43,142.88,72.57,142.88,358.34,Single-ply,SBD,M
Boys,55.79,4,Kenneth Trinidad,Manvel,55.16,102.06,72.57,154.22,328.85,Single-ply,SBD,M
Boys,55.79,5,Armando Cabriales,Clute Brazoswood,54.79,111.13,61.23,140.61,312.98,Single-ply,SBD,M
Boys,55.79,6,Christian Oller,West Columbia,54.88,106.59,70.31,129.27,306.17,Single-ply,SBD,M
Boys,55.79,DQ,Jaden Buchanan #2,Sweeny,55.79,111.13,,,,Single-ply,SBD,M
Boys,59.87,1,Clay Frick,Sweeny,59.51,138.35,79.38,145.15,362.87,Single-ply,SBD,M
Boys,59.87,2,Jerome Spells,Hitchcock,59.87,133.81,74.84,145.15,353.8,Single-ply,SBD,M
Boys,59.87,3,Enrique Alvarez,Hitchcock,59.87,129.27,52.16,136.08,317.51,Single-ply,SBD,M
Boys,59.87,4,Michael Flores #4,Alvin Shadow Creek,59.69,86.18,70.31,120.2,276.69,Single-ply,SBD,M
Boys,,NS,Phong Nguyen,Clute Brazoswood,,,,,,Single-ply,SBD,M
Boys,,NS,Drevian Archibald,Hitchcock,,,,,,Single-ply,SBD,M
Boys,67.13,1,Jalen Taylor,Stafford,64.23,181.44,108.86,172.37,462.66,Single-ply,SBD,M
Boys,67.13,2,Dylan Knight,Sweeny,66.77,167.83,104.33,183.7,455.86,Single-ply,SBD,M
Boys,67.13,3,Jermaine Ellis,Freeport Brazosport,66.5,188.24,90.72,167.83,446.79,Single-ply,SBD,M
Boys,67.13,4,Dorian Stanton,Clute Brazoswood,59.96,140.61,88.45,163.29,392.36,Single-ply,SBD,M
Boys,67.13,5,Cameron Taylor #1,Alvin Shadow Creek,66.59,131.54,83.91,165.56,381.02,Single-ply,SBD,M
Boys,67.13,6,Noah Markgraf,West Columbia,66.95,142.88,74.84,154.22,371.95,Single-ply,SBD,M
Boys,67.13,7,Sterling Smith,Manvel,63.87,124.74,77.11,165.56,367.41,Single-ply,SBD,M
Boys,67.13,8,Devin West,Clute Brazoswood,65.41,149.69,70.31,147.42,367.41,Single-ply,SBD,M
Boys,67.13,9,Draven Saldivar,Freeport Brazosport,60.6,129.27,77.11,145.15,351.53,Single-ply,SBD,M
Boys,67.13,10,James Palma,Alvin Shadow Creek,64.95,115.67,74.84,151.95,342.46,Single-ply,SBD,M
Boys,67.13,11,Brenden Nino,Alvin Shadow Creek,66.68,124.74,65.77,142.88,333.39,Single-ply,SBD,M
Boys,67.13,12,Jacob Rainer,Alvin Shadow Creek,66.59,108.86,72.57,133.81,315.25,Single-ply,SBD,M
Boys,67.13,13,Jacob Carter,Clute Brazoswood,61.14,106.59,68.04,138.35,312.98,Single-ply,SBD,M
Boys,67.13,14,Alex McGuire,Sweeny,62.69,97.52,61.23,115.67,274.42,Single-ply,SBD,M
Boys,74.84,1,Michael McBroom,West Columbia,74.75,190.51,120.2,213.19,523.9,Single-ply,SBD,M
Boys,74.84,2,Devonte Stafford,Freeport Brazosport,69.94,185.97,115.67,190.51,492.15,Single-ply,SBD,M
Boys,74.84,3,Cameron Baker #3,Clute Brazoswood,74.75,188.24,102.06,185.97,476.27,Single-ply,SBD,M
Boys,74.84,4,Mason Seay,Clute Brazoswood,71.94,174.63,90.72,195.04,460.4,Single-ply,SBD,M
Boys,74.84,5,Preston Fillipi,Alvin Shadow Creek,74.84,142.88,115.67,183.7,442.25,Single-ply,SBD,M
Boys,74.84,6,Fabian Peoples,Freeport Brazosport,70.03,165.56,99.79,172.37,437.72,Single-ply,SBD,M
Boys,74.84,7,Davion Kerns,West Columbia,68.76,161.03,88.45,181.44,430.91,Single-ply,SBD,M
Boys,74.84,8,John Branch,Manvel,68.76,154.22,83.91,181.44,419.57,Single-ply,SBD,M
Boys,74.84,9,Daniel Cantu,Clute Brazoswood,70.76,142.88,88.45,181.44,412.77,Single-ply,SBD,M
Boys,74.84,10,Bryson Wintjen,Clute Brazoswood,73.12,165.56,95.25,142.88,403.7,Single-ply,SBD,M
Boys,74.84,11,Chandler Cook,West Columbia,70.13,138.35,79.38,167.83,385.55,Single-ply,SBD,M
Boys,74.84,12,David Soto,Alvin Shadow Creek,69.58,106.59,68.04,149.69,324.32,Single-ply,SBD,M
Boys,,NS,Jason Martinez,Alvin Shadow Creek,,,,,,Single-ply,SBD,M
Boys,,NS,Jacory Joseph,Freeport Brazosport,,,,,,Single-ply,SBD,M
Boys,,NS,Ameer King,Freeport Brazosport,,,,,,Single-ply,SBD,M
Boys,82.1,1,Kolbi Foster,Sweeny,80.38,260.82,115.67,249.48,625.96,Single-ply,SBD,M
Boys,82.1,2,Randy Williams,Hitchcock,80.47,226.8,122.47,210.92,560.19,Single-ply,SBD,M
Boys,82.1,3,Jack Russel,West Columbia,79.74,188.24,122.47,213.19,523.9,Single-ply,SBD,M
Boys,82.1,4,Mario Vega,Clute Brazoswood,78.74,185.97,120.2,195.04,501.22,Single-ply,SBD,M
Boys,82.1,5,Alfredo Arenas,Manvel,80.29,195.04,102.06,181.44,478.54,Single-ply,SBD,M
Boys,82.1,6,Richard Lopez,Manvel,76.84,142.88,97.52,161.03,401.43,Single-ply,SBD,M
Boys,82.1,7,Shanton Sanders,Sweeny,76.48,145.15,88.45,161.03,394.63,Single-ply,SBD,M
Boys,82.1,DQ,Evan Green,Sweeny,81.19,174.63,108.86,,,Single-ply,SBD,M
Boys,,NS,Tyler Caluneo,Alvin Shadow Creek,,,,,,Single-ply,SBD,M
Boys,89.81,1,Bernard Senchery,Clute Brazoswood,88.9,222.26,129.27,229.06,580.6,Single-ply,SBD,M
Boys,89.81,2,Joey Avalos,Manvel,86.18,192.78,122.47,192.78,508.02,Single-ply,SBD,M
Boys,89.81,3,Ken Savanah,Stafford,88.81,181.44,131.54,185.97,498.95,Single-ply,SBD,M
Boys,89.81,4,Brady Byrd,Sweeny,89.72,204.12,97.52,192.78,494.42,Single-ply,SBD,M
Boys,89.81,5,Osman Tabora,Alvin Shadow Creek,88,142.88,70.31,165.56,378.75,Single-ply,SBD,M
Boys,,NS,Xavier Burk,Alvin Shadow Creek,,,,,,Single-ply,SBD,M
Boys,99.79,1,Jose Uribe,Clute Brazoswood,99.79,213.19,131.54,222.26,566.99,Single-ply,SBD,M
Boys,99.79,2,Jose Zaragoza,West Columbia,94.35,204.12,127.01,215.46,546.58,Single-ply,SBD,M
Boys,99.79,3,Jj Gutierrez,Hitchcock,91.17,192.78,129.27,192.78,514.83,Single-ply,SBD,M
Boys,99.79,4,Ethan George,Stafford,95.62,201.85,115.67,197.31,514.83,Single-ply,SBD,M
Boys,99.79,5,Sammy Romero,Sweeny,94.98,188.24,124.74,185.97,498.95,Single-ply,SBD,M
Boys,99.79,6,Brendon McDonald,Manvel,92.08,147.42,104.33,213.19,464.93,Single-ply,SBD,M
Boys,,NS,Hunter Thiem,Hitchcock,,,,,,Single-ply,SBD,M
Boys,,NS,Jacob Martinez #10,Alvin Shadow Creek,,,,,,Single-ply,SBD,M
Boys,,NS,Danny Marquez,Freeport Brazosport,,,,,,Single-ply,SBD,M
Boys,,NS,Marc Boles,Freeport Brazosport,,,,,,Single-ply,SBD,M
Boys,,NS,Charles Nichols,Clute Brazoswood,,,,,,Single-ply,SBD,M
Boys,109.77,1,Xavian Hampton,Hitchcock,109.59,294.84,158.76,265.35,718.94,Single-ply,SBD,M
Boys,109.77,2,John Ray,Alvin Shadow Creek,105.6,219.99,133.81,206.38,560.19,Single-ply,SBD,M
Boys,109.77,3,Xavier Rosette,Manvel,106.23,204.12,111.13,192.78,508.02,Single-ply,SBD,M
Boys,109.77,4,Kameron Hill,Stafford,100.88,185.97,131.54,188.24,505.76,Single-ply,SBD,M
Boys,109.77,DQ,Jacob Salazar,Stafford,109.32,138.35,106.59,,,Single-ply,SBD,M
Boys,,NS,Tyler Danford,Clute Brazoswood,,,,,,Single-ply,SBD,M
Boys,,NS,Marco Gonzalez,Clute Brazoswood,,,,,,Single-ply,SBD,M
Boys,124.74,1,Victor Guevara,Freeport Brazosport,124.1,322.05,199.58,272.16,793.79,Single-ply,SBD,M
Boys,124.74,2,CJ Bench,Clute Brazoswood,116.66,235.87,129.27,199.58,564.72,Single-ply,SBD,M
Boys,124.74,3,Joseph Solomon,Manvel,113.13,170.1,131.54,185.97,487.61,Single-ply,SBD,M
Boys,124.74,DQ,Elijah Mason,Hitchcock,119.57,,,,,Single-ply,SBD,M
Boys,124.74+,1,Michael Willer,Sweeny,137.71,317.51,170.1,265.35,752.96,Single-ply,SBD,M
Boys,124.74+,2,Jonathan Woods #2,Sweeny,162.11,244.94,183.7,210.92,639.57,Single-ply,SBD,M
Boys,124.74+,3,Luke Brooks,Clute Brazoswood,125.92,249.48,102.06,231.33,582.87,Single-ply,SBD,M
Boys,124.74+,4,Gustavo Cruz,Hitchcock,127.01,249.48,127.01,204.12,580.6,Single-ply,SBD,M
Boys,124.74+,5,Raymond Kersten,West Columbia,127.91,215.46,129.27,208.65,553.38,Single-ply,SBD,M
Boys,124.74+,6,Cameron Williams #4,Sweeny,137.89,199.58,129.27,224.53,553.38,Single-ply,SBD,M
Boys,124.74+,7,Timothy Richert,Manvel,129.46,204.12,122.47,208.65,535.24,Single-ply,SBD,M
Boys,124.74+,DQ,Moses Horn,Stafford,141.07,,,,,Single-ply,SBD,M
Boys,124.74+,DQ,Damarius Countee,Manvel,141.7,190.51,111.13,,,Single-ply,SBD,M
