Division,WeightClassKg,Place,Name,Team,BodyweightKg,Best3SquatKg,Best3BenchKg,Best3DeadliftKg,TotalKg,Equipment,Event,Sex,BirthDate
Boys,55.79,1,Col Stevens,Big Sandy Harmony,55.79,151.95,72.57,151.95,376.48,Single-ply,SBD,M,
Boys,55.79,2,Lane Turner,Gladewater Union Grove,54.88,113.4,72.57,113.4,299.37,Single-ply,SBD,M,
Boys,55.79,3,Travis Coe,Big Sandy Harmony,53.52,115.67,52.16,124.74,292.57,Single-ply,SBD,M,
Boys,59.87,1,Devin Espinoza,Gilmer Union Hill,57.24,138.35,77.11,142.88,358.34,Single-ply,SBD,M,
Boys,59.87,2,Isaiah O'Neal,Gladewater Union Grove,56.7,138.35,68.04,136.08,342.46,Single-ply,SBD,M,
Boys,59.87,DQ,Caleb Simmons,Gilmer Union Hill,59.87,,,,,Single-ply,SBD,M,
Boys,67.13,1,Leo Cornejo,Gilmer Union Hill,66.68,133.81,106.59,167.83,408.23,Single-ply,SBD,M,
Boys,67.13,2,Carter Smith,Gladewater Union Grove,66.81,142.88,90.72,154.22,387.82,Single-ply,SBD,M,
Boys,67.13,DQ,Daniel Dunn,Gilmer Union Hill,67.13,,,,,Single-ply,SBD,M,
Boys,67.13,DQ,Matt Massingill,Gilmer Union Hill,67.13,,,,,Single-ply,SBD,M,
Boys,74.84,1,Jayke Bass,Gilmer Union Hill,74.84,204.12,142.88,195.04,542.04,Single-ply,SBD,M,
Boys,74.84,2,Vinny Miller,Gladewater Union Grove,74.84,195.04,113.4,165.56,474,Single-ply,SBD,M,
Boys,74.84,3,Mason Byers,Gladewater Union Grove,72.76,133.81,92.99,124.74,351.53,Single-ply,SBD,M,
Boys,74.84,4,Wesley Sweaney,Big Sandy Harmony,69.85,111.13,70.31,142.88,324.32,Single-ply,SBD,M,
Boys,74.84,DQ,Jasper Giles,Gilmer Union Hill,74.84,,,,,Single-ply,SBD,M,
Boys,82.1,1,Davy Branscom,Gladewater Union Grove,82.1,215.46,115.67,188.24,519.36,Single-ply,SBD,M,
Boys,82.1,2,Jacob Griffin,Gladewater Union Grove,78.29,151.95,97.52,165.56,415.04,Single-ply,SBD,M,
Boys,89.81,1,Macen Clark,Gilmer Union Hill,85,181.44,129.27,206.38,517.1,Single-ply,SBD,M,
Boys,89.81,2,Brayden DeGoede,Big Sandy Harmony,85.73,154.22,108.86,156.49,419.57,Single-ply,SBD,M,
Boys,89.81,3,Josh Joyner,Gladewater Union Grove,88.9,129.27,102.06,170.1,401.43,Single-ply,SBD,M,
Boys,89.81,4,David McGhee,Gilmer Union Hill,89.31,127.01,72.57,140.61,340.19,Single-ply,SBD,M,
Boys,99.79,1,Tyler Rodgers,Gladewater Union Grove,95.71,190.51,104.33,183.7,478.54,Single-ply,SBD,M,
Boys,99.79,2,Tommy Branscom,Gladewater Union Grove,94.8,142.88,104.33,136.08,383.29,Single-ply,SBD,M,
Boys,99.79,3,Konner Ellison,Big Sandy Harmony,92.08,124.74,83.91,142.88,351.53,Single-ply,SBD,M,
Boys,109.77,1,Reed Cooper,Gladewater Union Grove,101.97,190.51,115.67,188.24,494.42,Single-ply,SBD,M,
Boys,124.74,1,Michael Sanchez,Big Sandy Harmony,116.12,215.46,122.47,199.58,537.51,Single-ply,SBD,M,
Boys,124.74,2,Aaron Wells,Big Sandy Harmony,124.28,142.88,81.65,136.08,360.61,Single-ply,SBD,M,
Boys,139.71+,1,Riley Dyer,Big Sandy Harmony,150.14,195.04,124.74,183.7,503.49,Single-ply,SBD,M,
Boys,139.71+,2,Kayden Ballard,Big Sandy Harmony,144.24,188.24,133.81,170.1,492.15,Single-ply,SBD,M,
Boys,139.71+,3,Spencer Murphy,Big Sandy Harmony,151.27,181.44,111.13,158.76,451.32,Single-ply,SBD,M,
