Division,WeightClassKg,Place,Name,Team,BodyweightKg,Best3SquatKg,Best3BenchKg,Best3DeadliftKg,TotalKg,Equipment,Event,Sex
Boys,51.71,1,Abe Villareal,Belton,51.48,136.08,70.31,156.49,362.87,Single-ply,SBD,M
Boys,51.71,2,Ryan Dean,Waco Midway,51.26,136.08,79.38,131.54,347,Single-ply,SBD,M
Boys,51.71,3,Rushi Patel,College Station,49.53,108.86,61.23,122.47,292.57,Single-ply,SBD,M
Boys,51.71,4,Eliazar Venegas,Waco Midway,45.18,106.59,58.97,115.67,281.23,Single-ply,SBD,M
Boys,51.71,5,Joel Bryan,College Station,47.81,111.13,54.43,106.59,272.16,Single-ply,SBD,M
Boys,51.71,6,Isiah Reza,College Station,48.26,92.99,47.63,106.59,247.21,Single-ply,SBD,M
Boys,55.79,1,Dwight Roberts,Temple,54.7,131.54,79.38,154.22,365.14,Single-ply,SBD,M
Boys,59.87,2,Marcus Stafford,Belton,55.88,127.01,79.38,129.27,335.66,Single-ply,SBD,M
Boys,55.79,3,Garrett Cooper,Waco Midway,55.25,97.52,63.5,106.59,267.62,Single-ply,SBD,M
Boys,59.87,4,Mark Ochoa,Temple,55.88,86.18,65.77,113.4,265.35,Single-ply,SBD,M
Boys,55.79,5,Lynn Edwards,Waco Midway,53.71,86.18,65.77,106.59,258.55,Single-ply,SBD,M
Boys,59.87,1,Alec Webster,Killeen Shoemaker,58.69,149.69,108.86,181.44,439.98,Single-ply,SBD,M
Boys,59.87,2,Tye Ochoa,Temple,59.24,170.1,81.65,170.1,421.84,Single-ply,SBD,M
Boys,67.13,3,Quintin Cannon,Temple,60.1,151.95,95.25,172.37,419.57,Single-ply,SBD,M
Boys,67.13,4,DJ Taylor,Waco,60.06,113.4,81.65,133.81,328.85,Single-ply,SBD,M
Boys,59.87,5,Troy Johnson,Copperas Cove,59.24,102.06,52.16,90.72,244.94,Single-ply,SBD,M
Boys,67.13,1,Braden Tschirart,College Station,65.95,188.24,106.59,181.44,476.27,Single-ply,SBD,M
Boys,74.84,2,De'vante Nealy,Temple,67.36,170.1,92.99,181.44,444.52,Single-ply,SBD,M
Boys,67.13,3,Christophe Channing,Killeen Shoemaker,65.41,142.88,99.79,185.97,428.64,Single-ply,SBD,M
Boys,74.84,4,Brendon Hunt,Belton,67.27,172.37,88.45,167.83,428.64,Single-ply,SBD,M
Boys,67.13,5,Markelan Henderson,Killeen Shoemaker,63.68,142.88,88.45,181.44,412.77,Single-ply,SBD,M
Boys,67.13,6,Braden Schaffer,Belton,65.95,163.29,102.06,147.42,412.77,Single-ply,SBD,M
Boys,74.84,7,Quintin Anderson,Temple,67.31,136.08,68.04,181.44,385.55,Single-ply,SBD,M
Boys,67.13,8,Matthew Espinoza,Waco Midway,62.87,138.35,83.91,147.42,369.68,Single-ply,SBD,M
Boys,67.13,9,Kyle Mitchell,Waco,61.6,136.08,83.91,138.35,358.34,Single-ply,SBD,M
Boys,67.13,10,Issiah Hawkins,Copperas Cove,64.86,124.74,90.72,136.08,351.53,Single-ply,SBD,M
Boys,67.13,11,Julen Perez,Waco Midway,61.05,129.27,74.84,131.54,335.66,Single-ply,SBD,M
Boys,74.84,12,Zach Johnson,Temple,67.31,113.4,83.91,136.08,333.39,Single-ply,SBD,M
Boys,67.13,DQ,Jaylan Hannah,Copperas Cove,64.68,142.88,,,,Single-ply,SBD,M
Boys,74.84,1,Malik Stoutamire,Temple,72.3,181.44,124.74,199.58,505.76,Single-ply,SBD,M
Boys,74.84,2,Blaine Wootan,College Station,74.57,204.12,106.59,185.97,496.68,Single-ply,SBD,M
Boys,74.84,3,Jalen Rios,Temple,74.03,179.17,102.06,181.44,462.66,Single-ply,SBD,M
Boys,74.84,4,Jacob Lewallen,Belton,73.48,172.37,90.72,183.7,446.79,Single-ply,SBD,M
Boys,74.84,5,Dominic Barajas,Waco,71.21,158.76,92.99,174.63,426.38,Single-ply,SBD,M
Boys,74.84,6,Bralon Buhl,Temple,72.85,149.69,86.18,172.37,408.23,Single-ply,SBD,M
Boys,74.84,7,Timothy Edwards,Copperas Cove,74.84,154.22,95.25,158.76,408.23,Single-ply,SBD,M
Boys,74.84,8,Chandler Vela,Belton,74.48,158.76,95.25,145.15,399.16,Single-ply,SBD,M
Boys,74.84,9,Dante Irving,Copperas Cove,68.13,131.54,86.18,149.69,367.41,Single-ply,SBD,M
Boys,74.84,10,Eian Kennedy,Copperas Cove,68.04,122.47,81.65,151.95,356.07,Single-ply,SBD,M
Boys,74.84,11,Jacob Blaha,College Station,69.04,,86.18,145.15,231.33,Single-ply,BD,M
Boys,74.84,12,William Thompson,Copperas Cove,72.85,106.59,,122.47,229.06,Single-ply,SD,M
Boys,74.84,DQ,Joe Shuler,Belton,74.03,127.01,70.31,149.69,,Single-ply,SBD,M
Boys,74.84,DQ,Caison Schur,Belton,73.48,138.35,81.65,142.88,,Single-ply,SBD,M
Boys,74.84,DQ,Chet Ligon,Belton,70.31,151.95,81.65,149.69,,Single-ply,SBD,M
Boys,82.1,1,Jeremy Rowe,Waco Midway,76.66,188.24,122.47,192.78,503.49,Single-ply,SBD,M
Boys,89.81,2,Corey Mann,Temple,82.33,185.97,108.86,185.97,480.81,Single-ply,SBD,M
Boys,82.1,3,Dalton Penick,Copperas Cove,82.1,161.03,108.86,174.63,444.52,Single-ply,SBD,M
Boys,82.1,4,Jameel Creech,Killeen Shoemaker,75.93,149.69,108.86,176.9,435.45,Single-ply,SBD,M
Boys,89.81,5,Duncan Nichols,Waco Midway,82.28,158.76,92.99,176.9,428.64,Single-ply,SBD,M
Boys,82.1,6,Joe Araujo,Waco,81.83,149.69,92.99,181.44,424.11,Single-ply,SBD,M
Boys,82.1,7,De'Tavion Hall,Temple,78.93,147.42,111.13,158.76,417.3,Single-ply,SBD,M
Boys,82.1,8,Deaundre Williamson,Copperas Cove,78.56,131.54,97.52,170.1,399.16,Single-ply,SBD,M
Boys,82.1,9,Alex Phillips #2,Waco Midway,80.92,154.22,90.72,147.42,392.36,Single-ply,SBD,M
Boys,82.1,10,Ben Wolz,College Station,77.93,158.76,88.45,142.88,390.09,Single-ply,SBD,M
Boys,82.1,11,David Benton,Waco Midway,77.66,129.27,95.25,136.08,360.61,Single-ply,SBD,M
Boys,82.1,12,Brett Dudden,Copperas Cove,75.48,131.54,,149.69,281.23,Single-ply,SD,M
Boys,82.1,13,Ethan Leuholtz,Waco Midway,76.48,86.18,72.57,115.67,274.42,Single-ply,SBD,M
Boys,89.81,14,Lane Lewis,Copperas Cove,82.19,108.86,,113.4,222.26,Single-ply,SD,M
Boys,82.1,DQ,Clayton Blank,Belton,81.28,122.47,,158.76,,Single-ply,SD,M
Boys,82.1,DQ,B Eichenhoff,Belton,80.29,136.08,70.31,145.15,,Single-ply,SBD,M
Boys,82.1,DQ,Justin Buuck,Belton,78.02,106.59,77.11,136.08,,Single-ply,SBD,M
Boys,89.81,1,Tyrique Hayes,College Station,86.18,226.8,136.08,217.72,580.6,Single-ply,SBD,M
Boys,89.81,2,Garrett Grant,College Station,88.09,231.33,124.74,213.19,569.26,Single-ply,SBD,M
Boys,89.81,3,Joe Warehime,Belton,86.64,226.8,140.61,199.58,566.99,Single-ply,SBD,M
Boys,89.81,4,John Harvey,Belton,85.73,219.99,120.2,210.92,551.11,Single-ply,SBD,M
Boys,89.81,5,Jerimiah Leyba,Belton,85.28,222.26,117.93,192.78,532.97,Single-ply,SBD,M
Boys,89.81,6,Buddy Curry,Belton,89.36,208.65,124.74,183.7,517.1,Single-ply,SBD,M
Boys,89.81,7,CJ Jones,Belton,87.54,172.37,113.4,197.31,483.08,Single-ply,SBD,M
Boys,89.81,8,Noah Duran,Belton,88,167.83,90.72,174.63,433.18,Single-ply,SBD,M
Boys,89.81,9,Kenneth Garrett,Waco Midway,85.64,149.69,90.72,161.03,401.43,Single-ply,SBD,M
Boys,99.79,1,Will Efendiev,College Station,95.71,217.72,158.76,181.44,557.92,Single-ply,SBD,M
Boys,99.79,2,Zach Haverly,Waco Midway,91.72,206.38,124.74,206.38,537.51,Single-ply,SBD,M
Boys,99.79,3,John King,College Station,95.44,199.58,127.01,199.58,526.17,Single-ply,SBD,M
Boys,99.79,4,DJ Fischer,Belton,99.34,188.24,97.52,215.46,501.22,Single-ply,SBD,M
Boys,99.79,5,Bradley Dorsett,College Station,94.08,181.44,111.13,174.63,467.2,Single-ply,SBD,M
Boys,99.79,6,Sean Adams,Copperas Cove,95.44,176.9,88.45,190.51,455.86,Single-ply,SBD,M
Boys,99.79,7,Bryce Avila,Belton,94.35,170.1,113.4,170.1,453.59,Single-ply,SBD,M
Boys,99.79,8,Jason Trevina-Mora,Copperas Cove,97.07,158.76,102.06,181.44,442.25,Single-ply,SBD,M
Boys,99.79,9,Jaime Calderon,Waco,99.34,195.04,95.25,142.88,433.18,Single-ply,SBD,M
Boys,99.79,10,Keifer Donovan,Copperas Cove,99.43,151.95,102.06,172.37,426.38,Single-ply,SBD,M
Boys,99.79,11,Andrew Patterson,Copperas Cove,94.89,165.56,86.18,172.37,424.11,Single-ply,SBD,M
Boys,99.79,12,Daylon Moorefield,Waco Midway,95.62,145.15,99.79,172.37,417.3,Single-ply,SBD,M
Boys,99.79,13,Jamar Whelles,Waco,90.63,113.4,77.11,142.88,333.39,Single-ply,SBD,M
Boys,109.77,14,Cody Garrett,Belton,99.88,197.31,108.86,,306.17,Single-ply,SB,M
Boys,99.79,DQ,Aaron Kruger,Belton,99.34,170.1,108.86,158.76,,Single-ply,SBD,M
Boys,109.77,1,Jamies Arturo,Belton,104.78,199.58,111.13,226.8,537.51,Single-ply,SBD,M
Boys,109.77,2,Anthony Flowers,Waco Midway,104.24,217.72,127.01,185.97,530.7,Single-ply,SBD,M
Boys,109.77,3,Tyrese Beasley,Waco,103.24,208.65,124.74,181.44,514.83,Single-ply,SBD,M
Boys,109.77,4,Brandon Gangloff,Belton,106.59,201.85,115.67,188.24,505.76,Single-ply,SBD,M
Boys,109.77,5,TaQuan Graham,Temple,103.78,170.1,111.13,199.58,480.81,Single-ply,SBD,M
Boys,109.77,6,Jerod Jackson,Belton,102.97,183.7,106.59,167.83,458.13,Single-ply,SBD,M
Boys,109.77,7,Marquise Haynes,Waco Midway,103.87,170.1,108.86,161.03,439.98,Single-ply,SBD,M
Boys,109.77,8,Matthew Douglas,Belton,106.14,151.95,108.86,174.63,435.45,Single-ply,SBD,M
Boys,109.77,9,Anthony Escobar,Killeen Shoemaker,102.06,142.88,111.13,158.76,412.77,Single-ply,SBD,M
Boys,109.77,10,Darrieon McLean,Waco,103.87,149.69,81.65,129.27,360.61,Single-ply,SBD,M
Boys,124.74,1,Braden Martinez,Belton,123.92,281.23,140.61,263.08,684.92,Single-ply,SBD,M
Boys,124.74,2,Drew Rodriguez,College Station,122.65,272.16,142.88,219.99,635.03,Single-ply,SBD,M
Boys,124.74,3,James Hayes,College Station,115.39,249.48,120.2,247.21,616.89,Single-ply,SBD,M
Boys,124.74,4,Kevondre Black,Waco,111.77,208.65,113.4,204.12,526.17,Single-ply,SBD,M
Boys,124.74,5,Lamonte Williams,Temple,116.39,195.04,117.93,192.78,505.76,Single-ply,SBD,M
Boys,124.74,6,Nathaniel Nanai,Killeen Shoemaker,123.92,192.78,142.88,163.29,498.95,Single-ply,SBD,M
Boys,124.74,7,Marcus White,Waco,120.66,208.65,122.47,163.29,494.42,Single-ply,SBD,M
Boys,124.74,8,Will Drake,Belton,119.29,208.65,106.59,174.63,489.88,Single-ply,SBD,M
Boys,124.74,9,Isiah Tobar,Belton,120.66,188.24,106.59,195.04,489.88,Single-ply,SBD,M
Boys,124.74,10,James Vernardos,Copperas Cove,116.57,201.85,106.59,170.1,478.54,Single-ply,SBD,M
Boys,124.74,11,Hakeem White,Waco Midway,120.11,170.1,113.4,181.44,464.93,Single-ply,SBD,M
Boys,124.74,12,Franc McCauley,Temple,115.21,188.24,83.91,190.51,462.66,Single-ply,SBD,M
Boys,124.74,13,Jonathan Bocanegra,Copperas Cove,111.58,174.63,104.33,181.44,460.4,Single-ply,SBD,M
Boys,124.74,14,David Hahn,College Station,117.93,199.58,99.79,154.22,453.59,Single-ply,SBD,M
Boys,124.74,15,Derrick Poppe,Killeen Shoemaker,118.75,131.54,117.93,163.29,412.77,Single-ply,SBD,M
Boys,124.74,16,Jose Lopez,Temple,119.57,249.48,158.76,,408.23,Single-ply,SB,M
Boys,124.74+,1,Jordan Seymore,College Station,139.16,294.84,158.76,249.48,703.07,Single-ply,SBD,M
Boys,124.74+,2,Javon Chambers,Belton,153.77,285.76,154.22,215.46,655.44,Single-ply,SBD,M
Boys,124.74+,3,Jessie Edison,Killeen Shoemaker,134.63,249.48,170.1,199.58,619.15,Single-ply,SBD,M
Boys,124.74+,4,Philip Lynch,Temple,127.73,249.48,133.81,233.6,616.89,Single-ply,SBD,M
Boys,124.74+,5,Justin Melton,Temple,132.18,233.6,149.69,226.8,610.08,Single-ply,SBD,M
Boys,124.74+,6,Drew Thigpen,Temple,132.45,226.8,131.54,201.85,560.19,Single-ply,SBD,M
Boys,124.74+,7,Tyrik Tucker,Temple,127.28,181.44,108.86,181.44,471.74,Single-ply,SBD,M
Boys,124.74+,8,Mark Gurrola,Waco,145.33,170.1,92.99,174.63,437.72,Single-ply,SBD,M
Boys,124.74+,9,Garrett Butler,Waco Midway,132.9,156.49,90.72,145.15,392.36,Single-ply,SBD,M
Boys,124.74+,10,Henry Beard,Waco Midway,127.82,124.74,70.31,138.35,333.39,Single-ply,SBD,M
