Division,WeightClassKg,Place,Name,Team,BodyweightKg,Best3SquatKg,Best3BenchKg,Best3DeadliftKg,TotalKg,Equipment,Event,Sex,BirthDate
Boys,51.71,1,Lane Turner,Gladewater Union Grove,50.53,95.25,52.16,90.72,238.14,Single-ply,SBD,M,
Boys,55.79,1,Col Stevens,Big Sandy Harmony,54.07,136.08,88.45,138.35,362.87,Single-ply,SBD,M,
Boys,67.13,1,Vincent Miller,Gladewater Union Grove,67.13,181.44,113.4,158.76,453.59,Single-ply,SBD,M,
Boys,67.13,2,Nathan Huckabay,Gladewater Union Grove,64.77,129.27,83.91,145.15,358.34,Single-ply,SBD,M,
Boys,67.13,3,James Evans,Gladewater Union Grove,66.86,131.54,81.65,142.88,356.07,Single-ply,SBD,M,
Boys,74.84,3,Jaden Chavers,Gladewater Union Grove,70.31,124.74,81.65,142.88,349.27,Single-ply,SBD,M,
Boys,82.1,1,Vance Aaron,Gladewater Union Grove,75.02,165.56,88.45,136.08,390.09,Single-ply,SBD,M,
Boys,82.1,2,Davy Branscom,Gladewater Union Grove,81.37,204.12,115.67,158.76,478.54,Single-ply,SBD,M,
Boys,82.1,2,Adam Hanson,Gladewater Union Grove,75.02,136.08,77.11,158.76,371.95,Single-ply,SBD,M,
Boys,82.1,3,Blake Moore,Gladewater Union Grove,81.01,165.56,122.47,163.29,451.32,Single-ply,SBD,M,
Boys,89.81,1,Brice Hart,Gladewater Union Grove,82.28,176.9,129.27,174.63,480.81,Single-ply,SBD,M,
Boys,89.81,1,Luis Lozano,Big Sandy Harmony,87.63,254.01,120.2,213.19,587.4,Single-ply,SBD,M,
Boys,89.81,2,Brayden DeGoode,Big Sandy Harmony,87.54,154.22,106.59,142.88,403.7,Single-ply,SBD,M,
Boys,89.81,3,Brett McNeel,Big Sandy Harmony,83.37,131.54,83.91,136.08,351.53,Single-ply,SBD,M,
Boys,99.79,1,Tyler Rodgers,Gladewater Union Grove,93.53,181.44,108.86,163.29,453.59,Single-ply,SBD,M,
Boys,99.79,2,Anthony Scavone,Gladewater Union Grove,96.34,165.56,79.38,142.88,387.82,Single-ply,SBD,M,
Boys,109.77,1,Andrew Mullins,Big Sandy Harmony,105.32,206.38,129.27,181.44,517.1,Single-ply,SBD,M,
Boys,109.77,2,Michael Sanchez,Big Sandy Harmony,107.77,188.24,108.86,149.69,446.79,Single-ply,SBD,M,
Boys,139.71,1,Kayden Ballard,Big Sandy Harmony,138.8,208.65,124.74,181.44,514.83,Single-ply,SBD,M,
Boys,139.71+,DQ,Spencer Murphy,Big Sandy Harmony,168.01,154.22,102.06,,,Single-ply,SBD,M,
